…
``` r
litters_df = janitor::clean_names(litters_df)
```

## select

Choose some columns and not others.

``` r
select(litters_df, group, litter_number, gd0_weight:gd_of_birth)
```

    ## # A tibble: 49 x 5
    ##    group litter_number   gd0_weight gd18_weight gd_of_birth
    ##    <chr> <chr>                <dbl>       <dbl>       <dbl>
    ##  1 Con7  #85                   19.7        34.7          20
    ##  2 Con7  #1/2/95/2             27          42            19
    ##  3 Con7  #5/5/3/83/3-3         26          41.4          19
    ##  4 Con7  #5/4/2/95/2           28.5        44.1          19
    ##  5 Con7  #4/2/95/3-3           NA          NA            20
    ##  6 Con7  #2/2/95/3-2           NA          NA            20
    ##  7 Con7  #1/5/3/83/3-3/2       NA          NA            20
    ##  8 Con8  #3/83/3-3             NA          NA            20
    ##  9 Con8  #2/95/3               NA          NA            20
    ## 10 Con8  #3/5/2/2/95           28.5        NA            20
    ## # … with 39 more rows

If we want to remove a variable.

``` r
select(litters_df, -group)
```

    ## # A tibble: 49 x 7
    ##    litter_number gd0_weight gd18_weight gd_of_birth pups_born_alive
    ##    <chr>              <dbl>       <dbl>       <dbl>           <dbl>
    ##  1 #85                 19.7        34.7          20               3
    ##  2 #1/2/95/2           27          42            19               8
    ##  3 #5/5/3/83/3-3       26          41.4          19               6
    ##  4 #5/4/2/95/2         28.5        44.1          19               5
    ##  5 #4/2/95/3-3         NA          NA            20               6
    ##  6 #2/2/95/3-2         NA          NA            20               6
    ##  7 #1/5/3/83/3-…       NA          NA            20               9
    ##  8 #3/83/3-3           NA          NA            20               9
    ##  9 #2/95/3             NA          NA            20               8
    ## 10 #3/5/2/2/95         28.5        NA            20               8
    ## # … with 39 more rows, and 2 more variables: pups_dead_birth <dbl>,
    ## #   pups_survive <dbl>

Rename a column and select it

``` r
select(litters_df, GROUP = group)
```

    ## # A tibble: 49 x 1
    ##    GROUP
    ##    <chr>
    ##  1 Con7 
    ##  2 Con7 
    ##  3 Con7 
    ##  4 Con7 
    ##  5 Con7 
    ##  6 Con7 
    ##  7 Con7 
    ##  8 Con8 
    ##  9 Con8 
    ## 10 Con8 
    ## # … with 39 more rows

Just rename a column.

``` r
rename(litters_df, GROUP = group)
```

    ## # A tibble: 49 x 8
    ##    GROUP litter_number gd0_weight gd18_weight gd_of_birth pups_born_alive
    ##    <chr> <chr>              <dbl>       <dbl>       <dbl>           <dbl>
    ##  1 Con7  #85                 19.7        34.7          20               3
    ##  2 Con7  #1/2/95/2           27          42            19               8
    ##  3 Con7  #5/5/3/83/3-3       26          41.4          19               6
    ##  4 Con7  #5/4/2/95/2         28.5        44.1          19               5
    ##  5 Con7  #4/2/95/3-3         NA          NA            20               6
    ##  6 Con7  #2/2/95/3-2         NA          NA            20               6
    ##  7 Con7  #1/5/3/83/3-…       NA          NA            20               9
    ##  8 Con8  #3/83/3-3           NA          NA            20               9
    ##  9 Con8  #2/95/3             NA          NA            20               8
    ## 10 Con8  #3/5/2/2/95         28.5        NA            20               8
    ## # … with 39 more rows, and 2 more variables: pups_dead_birth <dbl>,
    ## #   pups_survive <dbl>

Select helpers

``` r
select(litters_df, starts_with("gd"))
```

    ## # A tibble: 49 x 3
    ##    gd0_weight gd18_weight gd_of_birth
    ##         <dbl>       <dbl>       <dbl>
    ##  1       19.7        34.7          20
    ##  2       27          42            19
    ##  3       26          41.4          19
    ##  4       28.5        44.1          19
    ##  5       NA          NA            20
    ##  6       NA          NA            20
    ##  7       NA          NA            20
    ##  8       NA          NA            20
    ##  9       NA          NA            20
    ## 10       28.5        NA            20
    ## # … with 39 more rows

Relocate to the beginning and not do anything else

``` r
relocate(litters_df, litter_number)
```

    ## # A tibble: 49 x 8
    ##    litter_number group gd0_weight gd18_weight gd_of_birth pups_born_alive
    ##    <chr>         <chr>      <dbl>       <dbl>       <dbl>           <dbl>
    ##  1 #85           Con7        19.7        34.7          20               3
    ##  2 #1/2/95/2     Con7        27          42            19               8
    ##  3 #5/5/3/83/3-3 Con7        26          41.4          19               6
    ##  4 #5/4/2/95/2   Con7        28.5        44.1          19               5
    ##  5 #4/2/95/3-3   Con7        NA          NA            20               6
    ##  6 #2/2/95/3-2   Con7        NA          NA            20               6
    ##  7 #1/5/3/83/3-… Con7        NA          NA            20               9
    ##  8 #3/83/3-3     Con8        NA          NA            20               9
    ##  9 #2/95/3       Con8        NA          NA            20               8
    ## 10 #3/5/2/2/95   Con8        28.5        NA            20               8
    ## # … with 39 more rows, and 2 more variables: pups_dead_birth <dbl>,
    ## #   pups_survive <dbl>
…
    ## # A tibble: 0 x 8
    ## # … with 8 variables: group <chr>, litter_number <chr>, gd0_weight <dbl>,
    ## #   gd18_weight <dbl>, gd_of_birth <dbl>, pups_born_alive <dbl>,
    ## #   pups_dead_birth <dbl>, pups_survive <dbl>

Make it everything except when it equals 22

``` r
filter(litters_df, !(gd0_weight == 22))
```

    ## # A tibble: 34 x 8
    ##    group litter_number gd0_weight gd18_weight gd_of_birth pups_born_alive
    ##    <chr> <chr>              <dbl>       <dbl>       <dbl>           <dbl>
    ##  1 Con7  #85                 19.7        34.7          20               3
    ##  2 Con7  #1/2/95/2           27          42            19               8
    ##  3 Con7  #5/5/3/83/3-3       26          41.4          19               6
    ##  4 Con7  #5/4/2/95/2         28.5        44.1          19               5
    ##  5 Con8  #3/5/2/2/95         28.5        NA            20               8
    ##  6 Con8  #5/4/3/83/3         28          NA            19               9
    ##  7 Mod7  #59                 17          33.4          19               8
    ##  8 Mod7  #103                21.4        42.1          19               9
    ##  9 Mod7  #3/82/3-2           28          45.9          20               5
    ## 10 Mod7  #4/2/95/2           23.5        NA            19               9
    ## # … with 24 more rows, and 2 more variables: pups_dead_birth <dbl>,
    ## #   pups_survive <dbl>
…
## Mutate

``` r
mutate(
  litters_df,
  wt_gain = gd18_weight - gd0_weight
  )
```

    ## # A tibble: 49 x 9
    ##    group litter_number gd0_weight gd18_weight gd_of_birth pups_born_alive
    ##    <chr> <chr>              <dbl>       <dbl>       <dbl>           <dbl>
    ##  1 Con7  #85                 19.7        34.7          20               3
    ##  2 Con7  #1/2/95/2           27          42            19               8
    ##  3 Con7  #5/5/3/83/3-3       26          41.4          19               6
    ##  4 Con7  #5/4/2/95/2         28.5        44.1          19               5
    ##  5 Con7  #4/2/95/3-3         NA          NA            20               6
    ##  6 Con7  #2/2/95/3-2         NA          NA            20               6
    ##  7 Con7  #1/5/3/83/3-…       NA          NA            20               9
    ##  8 Con8  #3/83/3-3           NA          NA            20               9
    ##  9 Con8  #2/95/3             NA          NA            20               8
    ## 10 Con8  #3/5/2/2/95         28.5        NA            20               8
    ## # … with 39 more rows, and 3 more variables: pups_dead_birth <dbl>,
    ## #   pups_survive <dbl>, wt_gain <dbl>

## Arrange

``` r
arrange(litters_df, pups_born_alive)
```

    ## # A tibble: 49 x 8
    ##    group litter_number gd0_weight gd18_weight gd_of_birth pups_born_alive
    ##    <chr> <chr>              <dbl>       <dbl>       <dbl>           <dbl>
    ##  1 Con7  #85                 19.7        34.7          20               3
    ##  2 Low7  #111                25.5        44.6          20               3
    ##  3 Low8  #4/84               21.8        35.2          20               4
    ##  4 Con7  #5/4/2/95/2         28.5        44.1          19               5
    ##  5 Con8  #2/2/95/2           NA          NA            19               5
    ##  6 Mod7  #3/82/3-2           28          45.9          20               5
    ##  7 Mod7  #5/3/83/5-2         22.6        37            19               5
    ##  8 Mod7  #106                21.7        37.8          20               5
    ##  9 Con7  #5/5/3/83/3-3       26          41.4          19               6
    ## 10 Con7  #4/2/95/3-3         NA          NA            20               6
    ## # … with 39 more rows, and 2 more variables: pups_dead_birth <dbl>,
    ## #   pups_survive <dbl>
…
